%YAML 1.1
%TAG !u! tag:unity3d.com,2011:
--- !u!114 &11400000
MonoBehaviour:
  m_ObjectHideFlags: 0
  m_CorrespondingSourceObject: {fileID: 0}
  m_PrefabInstance: {fileID: 0}
  m_PrefabAsset: {fileID: 0}
  m_GameObject: {fileID: 0}
  m_Enabled: 1
  m_EditorHideFlags: 0
  m_Script: {fileID: 11500000, guid: a6b194f808b1af6499c93410e504af42, type: 3}
  m_Name: rank_Atlas
  m_EditorClassIdentifier: 
  atlasFile: {fileID: 4900000, guid: 4c88d07cbf7b86a4fa845c9d25e90956, type: 3}
  materials:
  - {fileID: 2100000, guid: 319fbaae9f40ac348b67fb278a87b6eb, type: 2}
