%YAML 1.1
%TAG !u! tag:unity3d.com,2011:
--- !u!78 &1
TagManager:
  serializedVersion: 2
  tags:
  - coin
  - door
  - object-box
  - star
  - ground
  - wall
  - monster-move-ground
  - switch
  - magnet
  - cloud
  - elevator
  - mirror
  - laser-receiver
  - press
  - water
  layers:
  - Default
  - TransparentFX
  - Ignore Raycast
  - 
  - Water
  - UI
  - 
  - 
  - player
  - ground
  - border
  - physic-object
  - item
  - collision
  - physic-special
  - monster
  - physic-special-1
  - magnet
  - teleport
  - physic-special-2
  - 
  - 
  - 
  - 
  - 
  - 
  - 
  - 
  - 
  - 
  - 
  - 
  m_SortingLayers:
  - name: Default
    uniqueID: 0
    locked: 0
