{
  "coin_skins": [
    {
      "id": 1,
      "skin": 1,
      "price": 2000,
      "coin_ads": 500
    },
    {
      "id": 44,
      "skin": 44,
      "price": 5000,
      "coin_ads": 500
    },
    {
      "id": 35,
      "skin": 35,
      "price": 10000,
      "coin_ads": 500
    },
    {
      "id": 55,
      "skin": 55,
      "price": 10000,
      "coin_ads": 500
    },
    {
      "id": 5,
      "skin": 5,
      "price": 3000,
      "coin_ads": 500
    },
    {
      "id": 50,
      "skin": 50,
      "price": 10000,
      "coin_ads": 500
    },
    {
      "id": 41,
      "skin": 41,
      "price": 5000,
      "coin_ads": 500
    },
    {
      "id": 40,
      "skin": 40,
      "price": 5000,
      "coin_ads": 500
    },
    {
      "id": 48,
      "skin": 48,
      "price": 5000,
      "coin_ads": 500
    },
    {
      "id": 15,
      "skin": 15,
      "price": 5000,
      "coin_ads": 500
    },
    {
      "id": 17,
      "skin": 17,
      "price": 20000,
      "coin_ads": 500
    },
    {
      "id": 25,
      "skin": 25,
      "price": 20000,
      "coin_ads": 500
    },
    {
      "id": 19,
      "skin": 19,
      "price": 10000,
      "coin_ads": 500
    },
    {
      "id": 33,
      "skin": 33,
      "price": 5000,
      "coin_ads": 500
    },
    {
      "id": 34,
      "skin": 34,
      "price": 20000,
      "coin_ads": 500
    },
    {
      "id": 43,
      "skin": 43,
      "price": 10000,
      "coin_ads": 500
    },
    {
      "id": 14,
      "skin": 14,
      "price": 5000,
      "coin_ads": 500
    },
    {
      "id": 22,
      "skin": 22,
      "price": 10000,
      "coin_ads": 500
    },
    {
      "id": 10,
      "skin": 10,
      "price": 5000,
      "coin_ads": 500
    },
    {
      "id": 28,
      "skin": 28,
      "price": 10000,
      "coin_ads": 500
    },
    {
      "id": 24,
      "skin": 24,
      "price": 10000,
      "coin_ads": 500
    },
    {
      "id": 42,
      "skin": 42,
      "price": 5000,
      "coin_ads": 500
    },
    {
      "id": 52,
      "skin": 52,
      "price": 5000,
      "coin_ads": 500
    },
    {
      "id": 8,
      "skin": 8,
      "price": 10000,
      "coin_ads": 500
    },
    {
      "id": 12,
      "skin": 12,
      "price": 5000,
      "coin_ads": 500
    },
    {
      "id": 16,
      "skin": 16,
      "price": 3000,
      "coin_ads": 500
    },
    {
      "id": 53,
      "skin": 53,
      "price": 5000,
      "coin_ads": 500
    },
    {
      "id": 49,
      "skin": 49,
      "price": 10000,
      "coin_ads": 500
    },
    {
      "id": 20,
      "skin": 20,
      "price": 10000,
      "coin_ads": 500
    },
    {
      "id": 13,
      "skin": 13,
      "price": 5000,
      "coin_ads": 500
    },
    {
      "id": 9,
      "skin": 9,
      "price": 5000,
      "coin_ads": 500
    },
    {
      "id": 7,
      "skin": 7,
      "price": 10000,
      "coin_ads": 500
    },
    {
      "id": 36,
      "skin": 36,
      "price": 20000,
      "coin_ads": 500
    },
    {
      "id": 2,
      "skin": 2,
      "price": 2000,
      "coin_ads": 500
    },
    {
      "id": 3,
      "skin": 3,
      "price": 2000,
      "coin_ads": 500
    },
    {
      "id": 4,
      "skin": 4,
      "price": 2000,
      "coin_ads": 500
    }
  ],
  "rescue_skins": [
    {
      "id": 6,
      "skin": 6,
      "level": 5,
      "coin_ads": 500
    },
    {
      "id": 21,
      "skin": 21,
      "level": 10,
      "coin_ads": 500
    },
    {
      "id": 39,
      "skin": 39,
      "level": 15,
      "coin_ads": 500
    },
    {
      "id": 23,
      "skin": 23,
      "level": 20,
      "coin_ads": 500
    },
    {
      "id": 30,
      "skin": 30,
      "level": 25,
      "coin_ads": 500
    },
    {
      "id": 27,
      "skin": 27,
      "level": 30,
      "coin_ads": 500
    },
    {
      "id": 29,
      "skin": 29,
      "level": 35,
      "coin_ads": 500
    },
    {
      "id": 46,
      "skin": 46,
      "level": 40,
      "coin_ads": 500
    }
  ],
  "premium_skins": [
    {
      "id": 11,
      "skin": 11,
      "coin_ads": 500
    },
    {
      "id": 18,
      "skin": 18,
      "coin_ads": 500
    },
    {
      "id": 26,
      "skin": 26,
      "coin_ads": 500
    },
    {
      "id": 31,
      "skin": 31,
      "coin_ads": 500
    },
    {
      "id": 32,
      "skin": 32,
      "coin_ads": 500
    },
    {
      "id": 37,
      "skin": 37,
      "coin_ads": 500
    },
    {
      "id": 38,
      "skin": 38,
      "coin_ads": 500
    },
    {
      "id": 45,
      "skin": 45,
      "coin_ads": 500
    },
    {
      "id": 47,
      "skin": 47,
      "coin_ads": 500
    },
    {
      "id": 51,
      "skin": 51,
      "coin_ads": 500
    },
    {
      "id": 54,
      "skin": 54,
      "coin_ads": 500
    }
  ],

  "package": [
    {
      "id": 1,
      "name": "Become A Vip",
      "description": "Vip Premium"
    },
    {
      "id": 2,
      "name": "Remove Ads 1",
      "description": "Remove Ads + 700 Coin"
    },
    {
      "id": 3,
      "name": "Remove Ads 2",
      "description": "Remove Ads"
    }
  ],
  "special_skins": [
    {
      "id": 1,
      "skin": 25
     
    },
    {
      "id": 2,
      "skin": 17
    },
    {
      "id": 3,
      "skin": 51
    
    },
    {
      "id": 4,
      "skin": 50
    },
    {
      "id": 5,
      "skin": 7
    }
  ]
}