
Hand_Turtorial.png
size: 216,100
format: RGBA8888
filter: Linear,Linear
repeat: none
effect
  rotate: false
  xy: 158, 42
  size: 56, 56
  orig: 56, 56
  offset: 0, 0
  index: -1
hand
  rotate: true
  xy: 2, 2
  size: 96, 154
  orig: 96, 164
  offset: 0, 10
  index: -1
